20

7 7
4
h 0 0 s
h 1 0 s
h 2 5 s
h 3 5 s
4 1

11 5
4
t 3 0 w
t 2 1 w
t 5 1 w
f 7 4 n
4 2

8 5
9
r 5 0 s
f 4 1 n
r 6 0 s
t 6 1 w
f 0 1 n
t 1 0 w
f 7 3 n
f 3 3 n
h 1 1 e
3 1

9 4
8
t 7 0 w
h 5 1 e
r 7 1 s
r 7 3 s
r 7 2 s
r 4 1 s
f 8 1 n
t 6 3 w
5 1

10 11
5
h 8 9 e
h 3 2 e
r 7 10 s
h 9 10 e
f 7 7 n
4 2

4 11
9
r 0 6 s
h 1 6 e
r 0 1 s
f 2 3 n
t 1 3 w
f 3 7 n
t 0 7 w
r 3 6 s
t 2 3 w
5 1

9 10
4
r 7 4 s
f 1 6 n
t 1 9 w
h 0 0 e
4 2

9 4
4
h 7 1 e
h 4 0 e
h 5 1 e
f 6 2 n
5 1

9 7
10
t 3 3 w
f 2 4 n
f 1 3 n
f 0 4 n
r 4 0 s
h 2 1 e
f 5 1 n
t 5 5 w
h 1 6 e
r 0 0 s
5 1

7 6
3
r 2 2 s
f 2 1 n
t 2 3 w
5 1

6 8
10
h 3 4 e
f 3 0 n
t 5 1 w
f 5 4 n
h 5 6 e
f 0 0 n
r 0 3 s
h 4 4 w
f 2 1 n
h 0 5 e
4 2

5 10
3
t 1 9 w
h 1 6 e
h 2 8 e
3 1

3 9
5
h 1 3 e
h 0 0 e
h 2 6 e
f 0 3 e
t 2 1 w
4 2

3 7
4
f 1 0 n
r 0 4 s
t 1 3 n
h 1 1 e
4 2

3 5
4
h 1 4 e
r 2 1 s
r 2 2 s
f 1 2 n
5 1

6 7
8
h 3 3 e
f 4 4 n
t 3 6 w
f 5 2 n
f 3 5 n
f 4 6 n
f 2 5 n
t 4 2 w
4 2

11 11
8
r 8 8 s
t 10 6 w
t 5 5 w
f 8 3 n
t 1 3 w
t 10 8 w
t 6 6 w
t 3 3 w
5 1

3 5
6
t 1 2 w
f 2 0 n
r 0 3 s
r 1 0 s
r 2 0 s
h 1 1 e
5 1

7 11
5
r 2 2 s
r 3 7 s
r 1 8 s
h 6 8 e
t 0 6 w
3 1

5 5
6
h 0 2 e
t 4 2 w
f 2 3 n
r 4 3 s
t 2 2 e
r 0 1 s
3 1
